{
    "intents": [
        {
            "intent": "AlexaMeetupCity",
            "slots": [
                {
                    "name": "USCity",
                    "type": "AMAZON.US_CITY"
                },
                {
                    "name": "EuropeanCity",
                    "type": "AMAZON.EUROPE_CITY"
                }
            ]
        },
        {
            "intent": "AlexaMeetupOrganisers",
            "slots": [
                {
                    "name": "USCity",
                    "type": "AMAZON.US_CITY"
                },
                {
                    "name": "EuropeanCity",
                    "type": "AMAZON.EUROPE_CITY"
                }
            ]
        },
        {
            "intent": "AlexaMeetupNumbers"
        },
        {
            "intent": "NameCapture",
            "slots": [
                {
                    "name": "USFirstName",
                    "type": "AMAZON.US_FIRST_NAME"
                },
                {
                    "name": "UKFirstName",
                    "type": "AMAZON.GB_FIRST_NAME"
                }
            ]
        },
        {
            "intent": "CountryCapture",
            "slots": [
                {
                    "name": "Country",
                    "type": "WORLD_COUNTRIES"
                }
            ]
        },
        {
            "intent": "AMAZON.StopIntent"
        },
        {
            "intent": "AMAZON.CancelIntent"
        },
        {
            "intent": "AMAZON.HelpIntent"
        }
    ]
}